<svg xmlns="http://www.w3.org/2000/svg" viewBox="0 0 322 44">
  <defs>
    <style>
      .cls-1 {
        fill: rgba(255,255,255,0);
        stroke: #000;
        stroke-width: 1.5px;
      }

      .cls-2 {
        stroke: none;
      }

      .cls-3 {
        fill: none;
      }
    </style>
  </defs>
  <g id="boundary" class="cls-1">
    <rect class="cls-2" width="322" height="44"/>
    <rect class="cls-3" x="0.75" y="0.75" width="320.5" height="42.5"/>
  </g>
</svg>
